Suicidio en España en relación con las comunidades autónomas, el consumo de alcohol y el ejercicio físico.
…
#consumo_alcohol_tiposresum$name[3]

consumo_alcohol1<-consumo_alcohol %>%
  enter_object(Data) %>%
  gather_array %>%
  spread_all %>%
  select("document.id", "Valor")

consumo_alcohol1

## # A tbl_json: 240 x 3 tibble with a "JSON" attribute
##    ..JSON                 document.id   Valor
##    <chr>                        <int>   <dbl>
##  1 "{\"Valor\":39974...."           1 39974. 
##  2 "{\"Valor\":26139...."           2 26140. 
##  3 "{\"Valor\":13774...."           3 13774. 
##  4 "{\"Valor\":59.9}"               4    59.9
##  5 "{\"Valor\":7096.4..."           5  7096. 
##  6 "{\"Valor\":3775.2..."           6  3775. 
##  7 "{\"Valor\":3305.9..."           7  3306. 
##  8 "{\"Valor\":15.3}"               8    15.3
##  9 "{\"Valor\":1121.4..."           9  1121. 
## 10 "{\"Valor\":667.3}"             10   667. 
## # ℹ 230 more rows

consumo_alcohol2<-consumo_alcohol %>%
  enter_object(MetaData) %>%
  gather_array %>%
  spread_all %>%
  select("document.id", "Nombre")
  
consumo_alcohol2

## # A tbl_json: 720 x 3 tibble with a "JSON" attribute
##    ..JSON                 document.id Nombre         
##    <chr>                        <int> <chr>          
##  1 "{\"T3_Variable\":..."           1 Ambos sexos    
##  2 "{\"T3_Variable\":..."           1 Total          
##  3 "{\"T3_Variable\":..."           1 TOTAL          
##  4 "{\"T3_Variable\":..."           2 Ambos sexos    
##  5 "{\"T3_Variable\":..."           2 Total          
##  6 "{\"T3_Variable\":..."           2 Sí ha consumido
##  7 "{\"T3_Variable\":..."           3 Ambos sexos    
##  8 "{\"T3_Variable\":..."           3 Total          
##  9 "{\"T3_Variable\":..."           3 No ha consumido
## 10 "{\"T3_Variable\":..."           4 Ambos sexos    
## # ℹ 710 more rows
…
tiposEjercicioFisico_visiongeneral<-ejercicioFisico%>% 
  gather_object %>% 
  json_types

tiposEjercicioFisico_visiongeneral

## # A tbl_json: 1,080 x 4 tibble with a "JSON" attribute
##    ..JSON                 document.id name     type  
##    <chr>                        <int> <chr>    <fct> 
##  1 "\"Ambos sexos, T..."            1 Nombre   string
##  2 "[{\"T3_Variable\"..."           1 MetaData array 
##  3 "[{\"Valor\":100}]"              1 Data     array 
##  4 "\"Ambos sexos, T..."            2 Nombre   string
##  5 "[{\"T3_Variable\"..."           2 MetaData array 
##  6 "[{\"Valor\":50.72..."           2 Data     array 
##  7 "\"Ambos sexos, T..."            3 Nombre   string
##  8 "[{\"T3_Variable\"..."           3 MetaData array 
##  9 "[{\"Valor\":13.21..."           3 Data     array 
## 10 "\"Ambos sexos, T..."            4 Nombre   string
## # ℹ 1,070 more rows
…
## # A tibble: 3 × 3
##   name     type       n
##   <chr>    <fct>  <int>
## 1 Data     array    360
## 2 MetaData array    360
## 3 Nombre   string   360

nombresEjercicioFisico <- ejercicioFisico %>%
  enter_object(Nombre)

#Con la línea siguiente busco interpretar como se guardan los datos.
nombresEjercicioFisico

## # A tbl_json: 360 x 2 tibble with a "JSON" attribute
##    ..JSON                document.id
##    <chr>                       <int>
##  1 "\"Ambos sexos, T..."           1
##  2 "\"Ambos sexos, T..."           2
##  3 "\"Ambos sexos, T..."           3
##  4 "\"Ambos sexos, T..."           4
##  5 "\"Ambos sexos, T..."           5
##  6 "\"Ambos sexos, T..."           6
##  7 "\"Ambos sexos, A..."           7
##  8 "\"Ambos sexos, A..."           8
##  9 "\"Ambos sexos, A..."           9
## 10 "\"Ambos sexos, A..."          10
## # ℹ 350 more rows
…
ejercicioFisicoMetaData <-ejercicioFisico %>%
  enter_object(MetaData) %>%
  gather_array %>%
  spread_all %>%
  select(document.id, Nombre)

ejercicioFisicoData

## # A tbl_json: 360 x 3 tibble with a "JSON" attribute
##    ..JSON              document.id  Valor
##    <chr>                     <int>  <dbl>
##  1 "{\"Valor\":100}"             1 100   
##  2 "{\"Valor\":50.72}"           2  50.7 
##  3 "{\"Valor\":13.21}"           3  13.2 
##  4 "{\"Valor\":18.14}"           4  18.1 
##  5 "{\"Valor\":10.25}"           5  10.2 
##  6 "{\"Valor\":7.68}"            6   7.68
##  7 "{\"Valor\":100}"             7 100   
##  8 "{\"Valor\":52.22}"           8  52.2 
##  9 "{\"Valor\":11.68}"           9  11.7 
## 10 "{\"Valor\":18.65}"          10  18.6 
## # ℹ 350 more rows

ejercicioFisicoMetaData

## # A tbl_json: 1,080 x 3 tibble with a "JSON" attribute
##    ..JSON                 document.id Nombre                
##    <chr>                        <int> <chr>                 
##  1 "{\"T3_Variable\":..."           1 Ambos sexos           
##  2 "{\"T3_Variable\":..."           1 Total                 
##  3 "{\"T3_Variable\":..."           1 TOTAL                 
##  4 "{\"T3_Variable\":..."           2 Ambos sexos           
##  5 "{\"T3_Variable\":..."           2 Total                 
##  6 "{\"T3_Variable\":..."           2 Ninguno               
##  7 "{\"T3_Variable\":..."           3 Ambos sexos           
##  8 "{\"T3_Variable\":..."           3 Total                 
##  9 "{\"T3_Variable\":..."           3 1 o 2 días a la semana
## 10 "{\"T3_Variable\":..."           4 Ambos sexos           
## # ℹ 1,070 more rows

ejercicioFisicoUnion <- left_join(ejercicioFisicoMetaData, ejercicioFisicoData, by="document.id")
ejercicioFisicoUnion

## # A tibble: 1,080 × 3
##    document.id Nombre                 Valor
##          <int> <chr>                  <dbl>
##  1           1 Ambos sexos            100  
##  2           1 Total                  100  
##  3           1 TOTAL                  100  
##  4           2 Ambos sexos             50.7
##  5           2 Total                   50.7
##  6           2 Ninguno                 50.7
##  7           3 Ambos sexos             13.2
##  8           3 Total                   13.2
##  9           3 1 o 2 días a la semana  13.2
## 10           4 Ambos sexos             18.1
## # ℹ 1,070 more rows
…
ejercicioFisicoUnion

## # A tibble: 1,080 × 6
##    document.id Nombre  Valor Sexo  Comunidades autonoma…¹ Frecuencia de ejerci…²
##          <int> <chr>   <dbl> <chr> <chr>                  <chr>                 
##  1           1 Ambos … 100   Ambo… <NA>                   <NA>                  
##  2           1 Total   100   <NA>  Total Nacional         <NA>                  
##  3           1 TOTAL   100   <NA>  <NA>                   TOTAL                 
##  4           2 Ambos …  50.7 Ambo… <NA>                   <NA>                  
##  5           2 Total    50.7 <NA>  Total Nacional         <NA>                  
##  6           2 Ninguno  50.7 <NA>  <NA>                   Ninguno               
##  7           3 Ambos …  13.2 Ambo… <NA>                   <NA>                  
##  8           3 Total    13.2 <NA>  Total Nacional         <NA>                  
##  9           3 1 o 2 …  13.2 <NA>  <NA>                   1 o 2 días a la semana
## 10           4 Ambos …  18.1 Ambo… <NA>                   <NA>                  
## # ℹ 1,070 more rows
## # ℹ abbreviated names: ¹​`Comunidades autonomas`, ²​`Frecuencia de ejercicio`

ejercicioFisicoUnion <- ejercicioFisicoUnion %>%
  fill(Sexo, `Comunidades autonomas`, `Frecuencia de ejercicio`, .direction = "up")

ejercicioFisicoUnion

## # A tibble: 1,080 × 6
##    document.id Nombre  Valor Sexo  Comunidades autonoma…¹ Frecuencia de ejerci…²
##          <int> <chr>   <dbl> <chr> <chr>                  <chr>                 
##  1           1 Ambos … 100   Ambo… Total Nacional         TOTAL                 
##  2           1 Total   100   Ambo… Total Nacional         TOTAL                 
##  3           1 TOTAL   100   Ambo… Total Nacional         TOTAL                 
##  4           2 Ambos …  50.7 Ambo… Total Nacional         Ninguno               
##  5           2 Total    50.7 Ambo… Total Nacional         Ninguno               
##  6           2 Ninguno  50.7 Ambo… Total Nacional         Ninguno               
##  7           3 Ambos …  13.2 Ambo… Total Nacional         1 o 2 días a la semana
##  8           3 Total    13.2 Ambo… Total Nacional         1 o 2 días a la semana
##  9           3 1 o 2 …  13.2 Ambo… Total Nacional         1 o 2 días a la semana
## 10           4 Ambos …  18.1 Ambo… Total Nacional         3 o 4 días a la semana
## # ℹ 1,070 more rows
## # ℹ abbreviated names: ¹​`Comunidades autonomas`, ²​`Frecuencia de ejercicio`

ejercicioFisicoUnion <- filter(ejercicioFisicoUnion, ejercicioFisicoUnion$Nombre == ejercicioFisicoUnion$Sexo)
  
ejercicioFisicoUnion

## # A tibble: 360 × 6
##    document.id Nombre  Valor Sexo  Comunidades autonoma…¹ Frecuencia de ejerci…²
##          <int> <chr>   <dbl> <chr> <chr>                  <chr>                 
##  1           1 Ambos… 100    Ambo… Total Nacional         TOTAL                 
##  2           2 Ambos…  50.7  Ambo… Total Nacional         Ninguno               
##  3           3 Ambos…  13.2  Ambo… Total Nacional         1 o 2 días a la semana
##  4           4 Ambos…  18.1  Ambo… Total Nacional         3 o 4 días a la semana
##  5           5 Ambos…  10.2  Ambo… Total Nacional         5 o 6 días a la semana
##  6           6 Ambos…   7.68 Ambo… Total Nacional         7 días a la semana    
##  7           7 Ambos… 100    Ambo… Andalucía              TOTAL                 
##  8           8 Ambos…  52.2  Ambo… Andalucía              Ninguno               
##  9           9 Ambos…  11.7  Ambo… Andalucía              1 o 2 días a la semana
## 10          10 Ambos…  18.6  Ambo… Andalucía              3 o 4 días a la semana
## # ℹ 350 more rows
## # ℹ abbreviated names: ¹​`Comunidades autonomas`, ²​`Frecuencia de ejercicio`

ejercicioFisicoUnion <- ejercicioFisicoUnion %>%
  select(-Nombre,-document.id)%>%
  rename("Miles de personas"=Valor)

ejercicioFisicoUnion

## # A tibble: 360 × 4
##    `Miles de personas` Sexo        Comunidades autonoma…¹ Frecuencia de ejerci…²
##                  <dbl> <chr>       <chr>                  <chr>                 
##  1              100    Ambos sexos Total Nacional         TOTAL                 
##  2               50.7  Ambos sexos Total Nacional         Ninguno               
##  3               13.2  Ambos sexos Total Nacional         1 o 2 días a la semana
##  4               18.1  Ambos sexos Total Nacional         3 o 4 días a la semana
##  5               10.2  Ambos sexos Total Nacional         5 o 6 días a la semana
##  6                7.68 Ambos sexos Total Nacional         7 días a la semana    
##  7              100    Ambos sexos Andalucía              TOTAL                 
##  8               52.2  Ambos sexos Andalucía              Ninguno               
##  9               11.7  Ambos sexos Andalucía              1 o 2 días a la semana
## 10               18.6  Ambos sexos Andalucía              3 o 4 días a la semana
## # ℹ 350 more rows
## # ℹ abbreviated names: ¹​`Comunidades autonomas`, ²​`Frecuencia de ejercicio`

totalPersonasComunidad <- ejercicioFisicoUnion %>%
  filter(`Frecuencia de ejercicio` == "TOTAL") %>%
  select(`Comunidades autonomas`, `Total personas según la comunidad` = `Miles de personas`)

totalPersonasComunidad

## # A tibble: 60 × 2
##    `Comunidades autonomas` `Total personas según la comunidad`
##    <chr>                                                 <dbl>
##  1 Total Nacional                                          100
##  2 Andalucía                                               100
##  3 Aragón                                                  100
##  4 Principado de Asturias                                  100
##  5 Islas Baleares                                          100
##  6 Islas Canarias                                          100
##  7 Cantabria                                               100
##  8 Castilla y León                                         100
##  9 Castilla-La Mancha                                      100
## 10 Cataluña                                                100
## # ℹ 50 more rows
…
frecuenciaNadaYMaxEjercicioComunidad <- ejercicioFisicoUnion%>%
  mutate(
    NadaMax = case_when(
      `Frecuencia de ejercicio` == "Ninguno" ~ `Ratio`,
      `Frecuencia de ejercicio` == "7 días a la semana" ~ `Ratio`,
      TRUE ~ as.double(NA)
    ))%>%
  select(`Comunidades autonomas`,Sexo,`Frecuencia de ejercicio`,`Ratio`, NadaMax) %>%
  filter(!is.na(NadaMax))

frecuenciaNadaYMaxEjercicioComunidad

## # A tibble: 120 × 5
##    `Comunidades autonomas` Sexo        `Frecuencia de ejercicio`  Ratio NadaMax
##    <chr>                   <chr>       <chr>                      <dbl>   <dbl>
##  1 Total Nacional          Ambos sexos Ninguno                   0.507   0.507 
##  2 Total Nacional          Ambos sexos 7 días a la semana        0.0768  0.0768
##  3 Andalucía               Ambos sexos Ninguno                   0.522   0.522 
##  4 Andalucía               Ambos sexos 7 días a la semana        0.0676  0.0676
##  5 Aragón                  Ambos sexos Ninguno                   0.535   0.535 
##  6 Aragón                  Ambos sexos 7 días a la semana        0.0819  0.0819
##  7 Principado de Asturias  Ambos sexos Ninguno                   0.340   0.340 
##  8 Principado de Asturias  Ambos sexos 7 días a la semana        0.0529  0.0529
##  9 Islas Baleares          Ambos sexos Ninguno                   0.473   0.473 
## 10 Islas Baleares          Ambos sexos 7 días a la semana        0.162   0.162 
## # ℹ 110 more rows
…
ComparacionNadaYMaxEjercicio <- ComparacionNadaYMaxEjercicio%>%
  mutate(
    `Porcentaje nada y máximo ejercicio` = ComparacionNadaYMaxEjercicio$`Comparacion nada y máximo ejercicio por comunidad y sexo`*100)

ComparacionNadaYMaxEjercicio

## # A tibble: 60 × 6
##    `Comunidades autonomas` Sexo        `7 días a la semana` Ninguno
##    <chr>                   <chr>                      <dbl>   <dbl>
##  1 Andalucía               Ambos sexos               0.0676   0.522
##  2 Andalucía               Hombres                   0.0752   0.468
##  3 Andalucía               Mujeres                   0.0603   0.574
##  4 Aragón                  Ambos sexos               0.0819   0.535
##  5 Aragón                  Hombres                   0.0694   0.546
##  6 Aragón                  Mujeres                   0.094    0.523
##  7 Cantabria               Ambos sexos               0.0377   0.654
##  8 Cantabria               Hombres                   0.0631   0.590
##  9 Cantabria               Mujeres                   0.0139   0.713
## 10 Castilla-La Mancha      Ambos sexos               0.0838   0.58 
## # ℹ 50 more rows
## # ℹ 2 more variables:
## #   `Comparacion nada y máximo ejercicio por comunidad y sexo` <dbl>,
## #   `Porcentaje nada y máximo ejercicio` <dbl>
…
